<?xml version="1.0" encoding="UTF-8"?>
<svg width="25px" height="29px" viewBox="0 0 25 29" version="1.1" xmlns="http://www.w3.org/2000/svg" xmlns:xlink="http://www.w3.org/1999/xlink">
    <title>2611BE54-A1D4-4553-9868-67BAD77F10B2</title>
    <defs>
        <path d="M7.21548578,8.69346663 C7.21464939,9.39953534 9.92453393,11.0626584 9.82709518,14.8196987 L9.82709518,14.8196987 C9.82709518,14.8196987 9.74045973,18.1592509 6.57641861,18.0756125 L6.57641861,18.0756125 C3.4122381,17.9919741 3.1280069,14.4090397 3.52849549,13.5626584 L3.52849549,13.5626584 C3.75759504,13.078499 4.06866024,12.6845255 4.68319347,12.7768234 L4.68319347,12.7768234 C5.2977267,12.8691918 5.64189876,12.5049986 5.43600887,12.3788369 L5.43600887,12.3788369 C5.43600887,12.3788369 1.36985779,10.2509152 0.473741904,9.85511124 L0.473741904,9.85511124 C0.200174599,9.7629541 -0.0933265277,10.0116868 0.0699774711,10.8039989 L0.0699774711,10.8039989 C0.618296959,13.4633906 2.28960152,19.1434807 5.08396086,27.844058 L5.08396086,27.844058 C5.18843917,28.1693889 5.53414461,28.3475077 5.85622219,28.2420445 L5.85622219,28.2420445 C5.87971064,28.2343002 5.90278091,28.2251478 5.92515418,28.2147282 L5.92515418,28.2147282 L20.4601859,21.4010138 C20.7845635,21.248944 21.0236997,20.9570544 21.1107533,20.6065897 L21.1107533,20.6065897 C22.2667059,15.9549423 22.9851598,12.6780484 23.2661849,10.776049 L23.2661849,10.776049 C23.3898303,9.93966488 22.9970783,9.85954661 22.8218558,9.94719797 L22.8218558,9.94719797 C21.9249732,10.3451845 18.1442382,12.36363 18.1442382,12.36363 L18.1442382,12.36363 C18.1437504,12.7605604 18.6675359,12.7600676 18.8960082,12.7597156 L18.8960082,12.7597156 C19.2721022,12.7592932 19.8117094,12.9863419 20.0489637,13.5428048 L20.0489637,13.5428048 C20.4159969,14.4036891 20.1551845,17.9717685 16.9909342,18.0630808 L16.9909342,18.0630808 C13.826684,18.1543227 13.7475063,14.8149817 13.7475063,14.8149817 L13.7475063,14.8149817 C13.6585708,11.0581526 16.3722191,9.38855252 16.3729161,8.6824134 L16.3729161,8.6824134 C16.374101,7.60222473 12.4182829,0.042030414 11.8038193,0.042030414 L11.8038193,0.042030414 C11.0500282,0.042030414 7.21667066,7.61320755 7.21548578,8.69346663 L7.21548578,8.69346663 Z" id="path-1"></path>
    </defs>
    <g id="Page-2" stroke="none" stroke-width="1" fill="none" fill-rule="evenodd">
        <g id="FAQs" transform="translate(-273.000000, -309.000000)">
            <g id="crown" transform="translate(273.712264, 309.000000)">
                <mask id="mask-2" fill="white">
                    <use xlink:href="#path-1"></use>
                </mask>
                <g id="Clip-11"></g>
                <polygon id="Fill-10" fill="#F9CD44" mask="url(#mask-2)" points="-0.0450950436 28.6684033 23.357978 28.6684033 23.357978 0.300478738 -0.0450950436 0.300478738"></polygon>
            </g>
        </g>
    </g>
</svg>